…
### LD between all pairs in a set of variants

    compute_ld_set(gds, c(1:10))

    ## # A tibble: 45 x 3
    ##    variant.id.1 variant.id.2 ld_composite
    ##           <int>        <int>        <dbl>
    ##  1            1            2     -0.0286 
    ##  2            1            3     -0.00268
    ##  3            1            4     -0.00379
    ##  4            1            5     -0.0108 
    ##  5            1            6     -0.00599
    ##  6            1            7     -0.00268
    ##  7            1            8     -0.00464
    ##  8            1            9      0.0414 
    ##  9            1           10     -0.0255 
    ## 10            2            3     -0.00949
    ## # … with 35 more rows
…
